module bitbucket.org/zolotarev-dmitriy/accounts

require (
	github.com/BurntSushi/toml v0.3.1 // indirect
	github.com/asticode/go-astitools v0.0.0-20181027135708-933b5f686c38
	github.com/buaazp/fasthttprouter v0.1.1
	github.com/ernsheong/grand v0.0.0-20171208035557-4a4ac72dc1de
	github.com/getsentry/raven-go v0.2.0
	github.com/gofrs/uuid v3.1.0+incompatible // indirect
	github.com/inconshreveable/mousetrap v1.0.0 // indirect
	github.com/kat-co/vala v0.0.0-20170210184112-42e1d8b61f12
	github.com/lib/pq v1.0.0
	github.com/pkg/errors v0.8.1
	github.com/pmezard/go-difflib v1.0.0 // indirect
	github.com/spf13/cobra v0.0.3
	github.com/spf13/pflag v1.0.2
	github.com/spf13/viper v1.2.1
	github.com/stretchr/testify v1.2.2 // indirect
	github.com/toolsparty/mvc v1.0.2
	github.com/toolsparty/mvc-router v0.0.0-20190211155713-f050ec2fb09f
	github.com/valyala/fasthttp v1.1.0
	github.com/volatiletech/inflect v0.0.0-20170731032912-e7201282ae8d // indirect
	github.com/volatiletech/null v8.0.0+incompatible
	github.com/volatiletech/sqlboiler v3.2.0+incompatible
	golang.org/x/crypto v0.0.0-20181106171534-e4dc69e5b2fd
	gopkg.in/DATA-DOG/go-sqlmock.v1 v1.3.0 // indirect
)
